<mxfile host="65bd71144e">
    <diagram id="7C0gkmEqpfa-ei361zD8" name="Page-1">
        <mxGraphModel dx="770" dy="397" grid="1" gridSize="10" guides="1" tooltips="1" connect="1" arrows="1" fold="1" page="1" pageScale="1" pageWidth="827" pageHeight="1169" math="0" shadow="0">
            <root>
                <mxCell id="0"/>
                <mxCell id="1" parent="0"/>
                <mxCell id="4" value="Utilisateur" style="shape=umlLifeline;participant=umlActor;perimeter=lifelinePerimeter;whiteSpace=wrap;html=1;container=1;collapsible=0;recursiveResize=0;verticalAlign=top;spacingTop=36;outlineConnect=0;movableLabel=0;labelBackgroundColor=default;" parent="1" vertex="1">
                    <mxGeometry x="50" y="302" width="20" height="565" as="geometry"/>
                </mxCell>
                <mxCell id="45" value="Présentation de la musique" style="html=1;verticalAlign=bottom;endArrow=open;dashed=1;endSize=8;fontSize=9;" parent="4" edge="1">
                    <mxGeometry relative="1" as="geometry">
                        <mxPoint x="162" y="498" as="sourcePoint"/>
                        <mxPoint x="7.5" y="498" as="targetPoint"/>
                    </mxGeometry>
                </mxCell>
                <mxCell id="53" value="Fermeture de l'application" style="html=1;verticalAlign=bottom;endArrow=block;fontSize=9;" parent="4" edge="1">
                    <mxGeometry width="80" relative="1" as="geometry">
                        <mxPoint x="7.5" y="528" as="sourcePoint"/>
                        <mxPoint x="162" y="528" as="targetPoint"/>
                    </mxGeometry>
                </mxCell>
                <mxCell id="5" value="Vue" style="shape=umlLifeline;participant=umlBoundary;perimeter=lifelinePerimeter;whiteSpace=wrap;html=1;container=1;collapsible=0;recursiveResize=0;verticalAlign=top;spacingTop=36;outlineConnect=0;labelBackgroundColor=default;" parent="1" vertex="1">
                    <mxGeometry x="190" y="302" width="50" height="565" as="geometry"/>
                </mxCell>
                <mxCell id="44" value="Transmission de la musique" style="html=1;verticalAlign=bottom;endArrow=open;dashed=1;endSize=8;fontSize=9;" parent="5" edge="1">
                    <mxGeometry relative="1" as="geometry">
                        <mxPoint x="187" y="468" as="sourcePoint"/>
                        <mxPoint x="27.5" y="468" as="targetPoint"/>
                    </mxGeometry>
                </mxCell>
                <mxCell id="52" value="Lancement de l'enregistrement" style="html=1;verticalAlign=bottom;endArrow=block;fontSize=9;" parent="5" target="15" edge="1">
                    <mxGeometry width="80" relative="1" as="geometry">
                        <mxPoint x="30" y="125" as="sourcePoint"/>
                        <mxPoint x="110" y="125" as="targetPoint"/>
                    </mxGeometry>
                </mxCell>
                <mxCell id="10" value="" style="html=1;points=[];perimeter=orthogonalPerimeter;labelBackgroundColor=default;fontSize=9;" parent="5" vertex="1">
                    <mxGeometry x="20" y="85" width="10" height="445" as="geometry"/>
                </mxCell>
                <mxCell id="56" value="" style="shape=umlDestroy;whiteSpace=wrap;html=1;strokeWidth=3;labelBackgroundColor=default;fontSize=9;" parent="5" vertex="1">
                    <mxGeometry x="17.5" y="528" width="15" height="15" as="geometry"/>
                </mxCell>
                <mxCell id="12" value="Contrôleur" style="shape=umlLifeline;participant=umlControl;perimeter=lifelinePerimeter;whiteSpace=wrap;html=1;container=1;collapsible=0;recursiveResize=0;verticalAlign=top;spacingTop=36;outlineConnect=0;labelBackgroundColor=default;fontSize=9;" parent="1" vertex="1">
                    <mxGeometry x="360" y="302" width="40" height="565" as="geometry"/>
                </mxCell>
                <mxCell id="15" value="" style="html=1;points=[];perimeter=orthogonalPerimeter;labelBackgroundColor=default;fontSize=9;" parent="12" vertex="1">
                    <mxGeometry x="15" y="85" width="10" height="445" as="geometry"/>
                </mxCell>
                <mxCell id="20" value="" style="html=1;points=[];perimeter=orthogonalPerimeter;labelBackgroundColor=default;fontSize=9;" parent="12" vertex="1">
                    <mxGeometry x="20" y="155" width="10" height="40" as="geometry"/>
                </mxCell>
                <mxCell id="21" value="Enregistrement" style="edgeStyle=orthogonalEdgeStyle;html=1;align=left;spacingLeft=2;endArrow=block;rounded=0;entryX=1;entryY=0;fontSize=9;" parent="12" target="20" edge="1">
                    <mxGeometry relative="1" as="geometry">
                        <mxPoint x="25" y="135" as="sourcePoint"/>
                        <Array as="points">
                            <mxPoint x="55" y="135"/>
                        </Array>
                    </mxGeometry>
                </mxCell>
                <mxCell id="25" value="" style="html=1;points=[];perimeter=orthogonalPerimeter;labelBackgroundColor=default;fontSize=9;" parent="12" vertex="1">
                    <mxGeometry x="20" y="225" width="10" height="40" as="geometry"/>
                </mxCell>
                <mxCell id="26" value="Création des empreintes" style="edgeStyle=orthogonalEdgeStyle;html=1;align=left;spacingLeft=2;endArrow=block;rounded=0;entryX=1;entryY=0;fontSize=9;" parent="12" target="25" edge="1">
                    <mxGeometry relative="1" as="geometry">
                        <mxPoint x="25" y="205" as="sourcePoint"/>
                        <Array as="points">
                            <mxPoint x="55" y="205"/>
                        </Array>
                    </mxGeometry>
                </mxCell>
                <mxCell id="42" value="Résultat sous forme d'objet" style="html=1;verticalAlign=bottom;endArrow=open;dashed=1;endSize=8;fontSize=9;" parent="12" edge="1">
                    <mxGeometry relative="1" as="geometry">
                        <mxPoint x="197" y="448" as="sourcePoint"/>
                        <mxPoint x="27.5" y="448" as="targetPoint"/>
                    </mxGeometry>
                </mxCell>
                <mxCell id="55" value="" style="shape=umlDestroy;whiteSpace=wrap;html=1;strokeWidth=3;labelBackgroundColor=default;fontSize=9;" parent="12" vertex="1">
                    <mxGeometry x="12.5" y="528" width="15" height="15" as="geometry"/>
                </mxCell>
                <mxCell id="13" value="Lancement de l'application" style="html=1;verticalAlign=bottom;endArrow=block;fontSize=9;entryX=0.114;entryY=0.009;entryDx=0;entryDy=0;entryPerimeter=0;" parent="1" source="4" target="10" edge="1">
                    <mxGeometry width="80" relative="1" as="geometry">
                        <mxPoint x="200" y="477" as="sourcePoint"/>
                        <mxPoint x="280" y="477" as="targetPoint"/>
                    </mxGeometry>
                </mxCell>
                <mxCell id="14" value="Lancement de la détection" style="html=1;verticalAlign=bottom;endArrow=block;fontSize=9;entryX=0.057;entryY=0.08;entryDx=0;entryDy=0;entryPerimeter=0;" parent="1" source="4" target="10" edge="1">
                    <mxGeometry width="80" relative="1" as="geometry">
                        <mxPoint x="69.92857142857144" y="397.72" as="sourcePoint"/>
                        <mxPoint x="210" y="407" as="targetPoint"/>
                    </mxGeometry>
                </mxCell>
                <mxCell id="27" value="Modèle" style="shape=umlLifeline;participant=umlEntity;perimeter=lifelinePerimeter;whiteSpace=wrap;html=1;container=1;collapsible=0;recursiveResize=0;verticalAlign=top;spacingTop=36;outlineConnect=0;labelBackgroundColor=default;fontSize=9;" parent="1" vertex="1">
                    <mxGeometry x="540" y="302" width="40" height="565" as="geometry"/>
                </mxCell>
                <mxCell id="28" value="" style="html=1;points=[];perimeter=orthogonalPerimeter;labelBackgroundColor=default;fontSize=9;" parent="27" vertex="1">
                    <mxGeometry x="15" y="85" width="10" height="445" as="geometry"/>
                </mxCell>
                <mxCell id="54" value="" style="shape=umlDestroy;whiteSpace=wrap;html=1;strokeWidth=3;labelBackgroundColor=default;fontSize=9;" parent="27" vertex="1">
                    <mxGeometry x="12.5" y="528" width="15" height="15" as="geometry"/>
                </mxCell>
                <mxCell id="59" value="" style="html=1;points=[];perimeter=orthogonalPerimeter;" vertex="1" parent="27">
                    <mxGeometry x="20" y="410" width="10" height="40" as="geometry"/>
                </mxCell>
                <mxCell id="60" value="&lt;font style=&quot;font-size: 9px&quot;&gt;Création d'histogramme&lt;/font&gt;" style="edgeStyle=orthogonalEdgeStyle;html=1;align=left;spacingLeft=2;endArrow=block;rounded=0;entryX=1;entryY=0;" edge="1" target="59" parent="27">
                    <mxGeometry relative="1" as="geometry">
                        <mxPoint x="25" y="390" as="sourcePoint"/>
                        <Array as="points">
                            <mxPoint x="55" y="390"/>
                        </Array>
                    </mxGeometry>
                </mxCell>
                <mxCell id="29" value="Transmission des empreintes" style="html=1;verticalAlign=bottom;endArrow=block;fontSize=9;" parent="1" source="15" target="27" edge="1">
                    <mxGeometry width="80" relative="1" as="geometry">
                        <mxPoint x="420" y="617" as="sourcePoint"/>
                        <mxPoint x="550" y="587" as="targetPoint"/>
                        <Array as="points">
                            <mxPoint x="460" y="587"/>
                        </Array>
                    </mxGeometry>
                </mxCell>
                <mxCell id="30" value="BDD" style="shape=umlLifeline;perimeter=lifelinePerimeter;whiteSpace=wrap;html=1;container=1;collapsible=0;recursiveResize=0;outlineConnect=0;labelBackgroundColor=default;fontSize=9;" parent="1" vertex="1">
                    <mxGeometry x="677" y="302" width="100" height="495" as="geometry"/>
                </mxCell>
                <mxCell id="37" value="" style="html=1;points=[];perimeter=orthogonalPerimeter;labelBackgroundColor=default;fontSize=9;" parent="30" vertex="1">
                    <mxGeometry x="45" y="300" width="10" height="80" as="geometry"/>
                </mxCell>
                <mxCell id="40" value="" style="shape=umlDestroy;whiteSpace=wrap;html=1;strokeWidth=3;labelBackgroundColor=default;fontSize=9;" parent="30" vertex="1">
                    <mxGeometry x="42.5" y="375" width="15" height="15" as="geometry"/>
                </mxCell>
                <mxCell id="38" value="Requête des correspondances" style="html=1;verticalAlign=bottom;endArrow=block;entryX=0;entryY=0;fontSize=9;" parent="1" source="28" target="37" edge="1">
                    <mxGeometry relative="1" as="geometry">
                        <mxPoint x="652" y="602" as="sourcePoint"/>
                    </mxGeometry>
                </mxCell>
                <mxCell id="39" value="Renvoie des correspondances" style="html=1;verticalAlign=bottom;endArrow=open;dashed=1;endSize=8;exitX=0;exitY=0.95;fontSize=9;" parent="1" source="37" target="28" edge="1">
                    <mxGeometry relative="1" as="geometry">
                        <mxPoint x="652" y="678" as="targetPoint"/>
                    </mxGeometry>
                </mxCell>
            </root>
        </mxGraphModel>
    </diagram>
</mxfile>